^D:\PROJECTS\CTDL&GT\ASSIGNMENT2\ASSIGNMENT2\ASSIGNMENT2\HCZHEADER.CPP
/c /ZI /nologo /W3 /WX- /sdl /Od /Oy- /D WIN32 /D _DEBUG /D _CONSOLE /D _CRT_SECURE_NO_WARNINGS /D _UNICODE /D UNICODE /Gm /EHsc /RTC1 /MDd /GS /fp:precise /Zc:wchar_t /Zc:forScope /Zc:inline /Fo"DEBUG\\" /Fd"DEBUG\VC140.PDB" /Gd /TP /analyze- D:\PROJECTS\CTDL&GT\ASSIGNMENT2\ASSIGNMENT2\ASSIGNMENT2\HCZHEADER.CPP
^D:\PROJECTS\CTDL&GT\ASSIGNMENT2\ASSIGNMENT2\ASSIGNMENT2\HUFFMANCODE.CPP
/c /ZI /nologo /W3 /WX- /sdl /Od /Oy- /D WIN32 /D _DEBUG /D _CONSOLE /D _CRT_SECURE_NO_WARNINGS /D _UNICODE /D UNICODE /Gm /EHsc /RTC1 /MDd /GS /fp:precise /Zc:wchar_t /Zc:forScope /Zc:inline /Fo"DEBUG\\" /Fd"DEBUG\VC140.PDB" /Gd /TP /analyze- D:\PROJECTS\CTDL&GT\ASSIGNMENT2\ASSIGNMENT2\ASSIGNMENT2\HUFFMANCODE.CPP
^D:\PROJECTS\CTDL&GT\ASSIGNMENT2\ASSIGNMENT2\ASSIGNMENT2\MAIN.CPP
/c /ZI /nologo /W3 /WX- /sdl /Od /Oy- /D WIN32 /D _DEBUG /D _CONSOLE /D _CRT_SECURE_NO_WARNINGS /D _UNICODE /D UNICODE /Gm /EHsc /RTC1 /MDd /GS /fp:precise /Zc:wchar_t /Zc:forScope /Zc:inline /Fo"DEBUG\\" /Fd"DEBUG\VC140.PDB" /Gd /TP /analyze- D:\PROJECTS\CTDL&GT\ASSIGNMENT2\ASSIGNMENT2\ASSIGNMENT2\MAIN.CPP
^D:\PROJECTS\CTDL&GT\ASSIGNMENT2\ASSIGNMENT2\ASSIGNMENT2\READER.CPP
/c /ZI /nologo /W3 /WX- /sdl /Od /Oy- /D WIN32 /D _DEBUG /D _CONSOLE /D _CRT_SECURE_NO_WARNINGS /D _UNICODE /D UNICODE /Gm /EHsc /RTC1 /MDd /GS /fp:precise /Zc:wchar_t /Zc:forScope /Zc:inline /Fo"DEBUG\\" /Fd"DEBUG\VC140.PDB" /Gd /TP /analyze- D:\PROJECTS\CTDL&GT\ASSIGNMENT2\ASSIGNMENT2\ASSIGNMENT2\READER.CPP
^D:\PROJECTS\CTDL&GT\ASSIGNMENT2\ASSIGNMENT2\ASSIGNMENT2\WRITER.CPP
/c /ZI /nologo /W3 /WX- /sdl /Od /Oy- /D WIN32 /D _DEBUG /D _CONSOLE /D _CRT_SECURE_NO_WARNINGS /D _UNICODE /D UNICODE /Gm /EHsc /RTC1 /MDd /GS /fp:precise /Zc:wchar_t /Zc:forScope /Zc:inline /Fo"DEBUG\\" /Fd"DEBUG\VC140.PDB" /Gd /TP /analyze- D:\PROJECTS\CTDL&GT\ASSIGNMENT2\ASSIGNMENT2\ASSIGNMENT2\WRITER.CPP
