^D:\PROJECTS\CTDL&GT\SORTING\SORTING\SOURCE.CPP
D:\PROJECTS\CTDL&GT\SORTING\SORTING\DEBUG\VC140.PDB
D:\PROJECTS\CTDL&GT\SORTING\SORTING\DEBUG\VC140.IDB
D:\PROJECTS\CTDL&GT\SORTING\SORTING\DEBUG\SOURCE.OBJ
