^C:\USERS\HUYVO\DESKTOP\FINALTERM\FINALTERM\DEBUG\SOURCE.OBJ
C:\USERS\HUYVO\DESKTOP\FINALTERM\DEBUG\FINALTERM.ILK
C:\USERS\HUYVO\DESKTOP\FINALTERM\DEBUG\FINALTERM.EXE
C:\USERS\HUYVO\DESKTOP\FINALTERM\DEBUG\FINALTERM.PDB
