22
-6426425625745
-1961189557140
-232027
-550094622
135^12
79122
-37583274416999036
-783607841845490
-767753450348338
-13
598877342
129092942372500
3760023457
-518
-0429109195057
6242542312353499998
6163867347
-195173354351875
-50453061681889833378
-247858261857695632
-630423008438776
15!
+
+
+
+
+
*
+
+
*
+
+
*
+
*
-
+
+
-
+
+
-

