20
00436
-56
6789451
-8
-77462296
-406962
2647082410
6
80298974
53912961
-98
4825825619
1320
939113482
14394
2167251807
429184
-12846
15854266
-14046
+
+
+
+
+
-
+
-
+
+
-
-
-
+
+
-
+
+
+

