23
-6388919320
-88031249552982900
4263436
412926098952
40925358246
1787250853061951740
08308143426465
-20982
-06
-066627119725130
841667102
3126315453447343214
89703136108
13214962492219
-95251713165
-3424
-59376391058190548
-8387502501524624554
-9296913062
9057
0179341553
754813637151102
-1073431187905921
+
+
-
*
+
+
+
+
-
-
+
+
-
-
-
-
+
*
+
-
-
*

