26
-611722125117750
-714217531886
108928939
703067693
05266
-088903464313
-48310775216855438767
-401087424443
69560297621031448488
-8734
-159363
-2160^0
-8
-702^62
19614457079
-68145
3082791649034
-4956585446
-81424279769414395770
-666198
1348065532488246
-10082107
885
840961498877255352
-300543617622841
08314349484413494504
+
+
+
-
+
*
-
+
*
*
-
*
-
+
+
*
+
*
+
-
+
+
*
-
+

